{
  "name": "CourseExamDocument",
  "id": 3414781,
  "title": "Έγγραφο αποστολής εξέτασης ",
  "hidden": false,
  "sealed": false,
  "version": "2.0",
  "fields": [
    {
      "name": "id",
      "title": "Κωδικός",
      "description": "Ο κωδικός του εγγράφου",
      "type": "Integer",
      "nullable": false,
      "primary": true
    },
    {
      "name": "courseExam",
      "title": "Εξέταση",
      "description": "Η εξέταση του μαθήματος",
      "type": "CourseExam",
      "nullable": false
    },
    {
      "name": "user",
      "title": "Χρήστης",
      "description": "Ο χρήστης που δημιούργησε το έγγραφο.",
      "type": "User"
    },
    {
      "name": "documentSubject",
      "title": "Θέμα",
      "description": "Περιγραφή του εγγράφου",
      "type": "Text"
    },
    {
      "name": "originalDocument",
      "title": "Xml document",
      "description": "Το αρχικό xml έγγραφο που απέστειλε ο χρήστης.",
      "type": "Text"
    },
    {
      "name": "signedDocument",
      "title": "Xml signed document",
      "description": "Το υπογεγραμμένο xml έγγραφο που απέστειλε ο χρήστης.",
      "type": "Text"
    },
    {
      "name": "signatureBlock",
      "title": "Signature Block",
      "description": "Signature Block",
      "type": "Text"
    },
    {
      "name": "userCertificate",
      "title": "Πιστοποιητικό χρήστη",
      "description": "Το πιστοποιητικό του χρήστη.",
      "type": "Text"
    },
    {
      "name": "documentStatus",
      "title": "Κατάσταση",
      "description": "Η κατάσταση του εγγράφου",
      "type": "DocumentStatus"
    },
    {
      "name": "documentStatusReason",
      "title": "Αναλυτική περιγραφή",
      "description": "Μία αναλυτική περιγραφή της κατάστασης του εγγράφου.",
      "type": "Text"
    },
    {
      "name": "checkHashKey",
      "title": "Κλειδί ελέγχου",
      "description": "Κλειδί ελέγχου εγγράφου",
      "type": "Text"
    },
    {
      "name": "dateCreated",
      "title": "Ημερομηνία δημιουργίας",
      "description": "Ημερομηνία δημιουργίας",
      "type": "DateTime"
    },
    {
      "name": "dateModified",
      "title": "Ημερομηνία τροποποίησης",
      "description": "Ημερομηνία τροποποίησης",
      "type": "DateTime",
      "nullable": false,
      "size": 8
    },
    {
      "@id": "http://schema.org/identifier",
      "name": "identifier",
      "title": "identifier",
      "description": "Η ιδιότητα αναγνωριστικού που αντιπροσωπεύει οποιοδήποτε είδος αναγνωριστικού",
      "type": "Guid",
      "value": "javascript:return this.newGuid();"
    }
  ],
  "privileges": [
    {
      "mask": 5,
      "type": "self",
      "filter": "user eq me()"
    },
    {
      "mask": 15,
      "type": "global"
    }
  ],
  "eventListeners": [
    {
      "type": "./listeners/course-exam-document-listener",
      "name": "Course exam listener"
    }
  ]
}