{
    "name": "LocalDepartment",
    "id": 5273303,
    "title": "Τμήματα που ανήκουν στο τοπικό ίδρυμα",
    "hidden": false,
    "sealed": false,
    "version": "2.1",
    "inherits":"Department",
    "fields": [
        {
            "name": "id",
            "title": "Κωδικός",
            "description": "Μοναδικός κωδικός τμήματος",
            "type": "Text",
            "nullable": false,
            "size": 5,
            "primary": true
        },
        {
            "name": "checkCourseRules",
            "title": "Έλεγχος προϋποθέσεων μαθήματος",
            "description": "Έλεγχος προϋποθέσεων μαθήματος κατά τη δήλωση μαθήματος (ΝΑΙ/ΟΧΙ).",
            "type": "Boolean"
        },
        {
            "name": "checkSemesterRules",
            "title": "Έλεγχος προϋποθέσεων εξαμήνου προγράμματος σπουδών",
            "description": "Έλεγχος προϋποθέσεων εξαμήνου προγράμματος σπουδών κατά τη δήλωση μαθημάτων (ΝΑΙ/ΟΧΙ)",
            "type": "Boolean"
        },
        {
            "name": "checkCustomRules",
            "title": "Έλεγχος ειδικών προϋποθέσεων",
            "description": "Έλεγχος ειδικών προϋποθέσεων που αφορούν ειδικούς κανόνες που ισχύουν για το τμήμα",
            "type": "Boolean"
        },
        {
            "name": "checkScheduleRules",
            "title": "Έλεγχος προϋποθέσεων προγράμματος διδασκαλίας",
            "description": "Έλεγχος προϋποθέσεων προγράμματος διδασκαλίας (επικαλύψεις ωρών κλπ)",
            "type": "Boolean"
        },
        {
            "name": "isRegistrationPeriod",
            "title": "Περίοδος Δηλώσεων",
            "description": "Είναι περίοδος δηλώσεων (ΝΑΙ/ΟΧΙ).",
            "type": "Boolean"
        },
        {
            "name": "registrationPeriodNotes",
            "title": "Πληροφορίες Περιόδου Δηλώσεων",
            "description": "Πληροφορίες περιόδου δηλώσεων (σημειώσεις και οδηγίες που εμφανίζονται στους φοιτητές κατά τη δήλωση μαθημάτων).",
            "type": "Text"
        },
        {
            "name": "registrationPeriodStart",
            "title": "Ημερομηνία έναρξης δηλώσεων μαθημάτων",
            "description": "Ημερομηνία έναρξης δηλώσεων μαθημάτων",
            "type": "DateTime"
        },
        {
            "name": "registrationPeriodEnd",
            "title": "Ημερομηνία λήξης δηλώσεων μαθημάτων",
            "description": "Ημερομηνία λήξης δηλώσεων μαθημάτων",
            "type": "DateTime"
        },
        {
            "name": "allowRegistrationChange",
            "title": "Τροποποίηση δηλώσεων μαθημάτων",
            "description": "Επιτρέπεται η τροποποίηση δηλώσεων μαθημάτων (ΝΑΙ/ΟΧΙ).",
            "type": "Boolean"
        },
        {
            "name": "webShowGrades",
            "title": "Εμφάνιση βαθμολογιών μαθημάτων",
            "description": "Εμφάνιση βαθμολογιών μαθημάτων στο site των φοιτητών (ΝΑΙ/ΟΧΙ)",
            "type": "Boolean"
        },
        {
            "name": "webResultsYear",
            "title": "Ακαδημαϊκό έτος εμφάνισης βαθμολογιών μαθημάτων",
            "description": "Ακαδημαϊκό έτος εμφάνισης βαθμολογιών μαθημάτων στο site των φοιτητών",
            "type": "Short"
        },
        {
            "name": "webResultsViewType",
            "title": "Μορφή προβολής βαθμολογιών μαθημάτων",
            "description": "Μορφή προβολής βαθμολογιών μαθημάτων (ονοματεπώνυμο, μόνο αριθμοί μητρώου)",
            "type": "Short"
        },
        {
            "name": "allowSpecialtySelection",
            "title": "Επιλογή κατεύθυνσης φοιτητή",
            "description": "Επιτρέπεται η επιλογή κατεύθυνσης φοιτητή εφόσον το πρόγραμμα σπουδών το επιτρέπει",
            "type": "Boolean"
        }
    ],
    "views": [
        {
            "name": "Local",
            "filter": "localDepartment eq true"
        }
    ],
    "privileges": [
        {
            "mask": 1,
            "type": "global",
            "account": "*"
        },
        {
            "mask": 15,
            "type": "global"
        }
    ],
    "eventListeners": [
        {
            "name": "Lookup Cache Listener",
            "type": "./listeners/noop-listener.js"
        }
    ]
}