{
    "name": "PeriodRegistrationType",
    "type": "lookup",
    "title": "Τύπος περιόδου εγγραφής φοιτητή σε εξάμηνο",
    "hidden": false,
    "sealed": false,
    "abstract": false,
    "caching": "always",
    "implements": "Enumeration",
    "category": "lookup",
    "version": "1.1",
    "fields": [
        {
            "name": "id",
            "title": "Id",
            "type": "Counter",
            "nullable": false,
            "primary": true
        }
    ],
    "privileges": [
        {
            "mask": 1,
            "type": "global",
            "account": "*"
        },
        {
            "mask": 15,
            "type": "global"
        }
    ],
    "constraints": [
        {
            "type": "unique",
            "description": "Alternate name must be unique across different records",
            "fields": [
                "alternateName"
            ]
        },
        {
            "type": "unique",
            "description": "Name must be unique across different records",
            "fields": [
                "name"
            ]
        }
    ],
    "seed": [
        {
            "alternateName": "regular",
            "name": "Κανονική",
            "identifier": 1
        },
        {
            "alternateName": "exchange",
            "name": "Προγράμματα ανταλλαγής",
            "identifier": 2
        }
    ],
    "eventListeners": [
        {
            "name": "Lookup Cache Listener",
            "type": "./listeners/lookup-cache-listener.js"
        }
    ]
}