{ "name": "StudentTempClass", "id": 9543293, "title": "Temporary Student Classes", "hidden": true, "fields": [
    {
        "name": "id",
        "title": "Id",
        "description": "Id",
        "type": "Text",
        "nullable": false,
        "size": 40,
        "primary":true
    },
    {
        "name": "courseClass",
        "title": "Course Class",
        "description": "Course Class",
        "type": "CourseClass",
        "nullable": false
    },
    {
        "name": "programCourse",
        "title": "Program course code",
        "description": "Program course code",
        "type": "ProgramCourse"
    },
    {
        "name": "student",
        "title": "Student",
        "description": "Student",
        "type": "Student",
        "nullable": false
    },
    {
        "name": "registrationType",
        "title": "Registration Type",
        "description": "Registration Type",
        "type": "RegistrationType",
        "nullable": true,
        "expandable":true
    },
    {
        "name": "section",
        "title": "Class Section",
        "description": "Class Section",
        "type": "Integer",
        "nullable": true,
        "size": 4
    },
    {
        "name": "status",
        "title": "Status",
        "description": "Status",
        "type": "Integer",
        "nullable": true,
        "size": 4
    },
    {
        "name": "units",
        "title": "units",
        "description": "units",
        "type": "Number",
        "nullable": true,
        "size": 4
    },
    {
        "name": "coefficient",
        "title": "Class Coefficient",
        "description": "Class Coefficient",
        "type": "Number",
        "nullable": true,
        "size": 4
    },
    {
        "name": "hours",
        "title": "Class Hours",
        "description": "Class Hours",
        "type": "Integer",
        "nullable": true
    },
    {
        "name": "semester",
        "title": "Semester",
        "description": "Semester",
        "type": "Semester",
        "nullable": false
    },
    {
        "name": "courseType",
        "title": "Course Type",
        "description": "Course Type",
        "type": "CourseType",
        "nullable": true,
        "expandable": true
    },
    {
        "name": "ects",
        "title": "ects",
        "description": "ects",
        "type": "Number",
        "nullable": true,
        "size": 4
    },
    {
        "name": "displayCode",
        "title": "Κωδικός εμφάνισης μαθήματος",
        "description": "Κωδικός εμφάνισης μαθήματος",
        "type": "Text",
        "nullable": true,
        "size": 22
    },
    {
        "name": "name",
        "title": "Τίτλος τάξης (μπορεί να διαφέρει ανά έτος)",
        "description": "Τίτλος τάξης (μπορεί να διαφέρει ανά έτος)",
        "type": "Text",
        "nullable": true,
        "size": 255
    },
    {
        "name": "programGroup",
        "title": "Ομάδα προγράμματος σπουδών",
        "description": "Ομάδα προγράμματος σπουδών",
        "type": "ProgramGroup",
        "expandable":true
    },
    {
        "name": "registered",
        "title": "Registered",
        "description": "Indicates whether this class was registered in the past or belong to program or specialty courses.",
        "type": "Integer",
        "size": 2
    },
    {
        "name": "specialty",
        "title": "Specialty",
        "description": "Represents the specialty index associated with this class.",
        "type": "Guid",
        "expandable":true,
        "mapping": {
            "parentModel": "ProgramSpecialty",
            "childModel": "StudentTempClass",
            "parentField": "id",
            "childField": "specialty",
            "cascade": "null",
            "associationType": "association"
        }
    },
    {
        "name": "parentCourse",
        "title": "Πατρικό μάθημα",
        "description": "Πατρικό μάθημα",
        "type": "Course"
    },
    {
        "name": "dateCreated",
        "title": "Date created",
        "description": "The date and time when the item was created.",
        "type": "DateTime",
        "value":"javascript:return this.now();",
        "readonly":true
    },
    {
        "name": "dateModified",
        "title": "Date Modified",
        "description": "The date and time when the item was modified.",
        "type": "DateTime",
        "value":"javascript:return new Date();",
        "calculation":"javascript:return this.now();",
        "readonly":true
    }
],"constraints": [
    {
        "type": "unique",
        "description": "A temporary student class registration must be unique for a specific class.",
        "fields": ["student", "courseClass" ]
    }
], "privileges":[
    { "mask":15, "type":"global" },
    { "mask":15, "type":"self", "filter":"student eq student()" }
], "views": [

], "eventListeners": [

]}