{"name": "Thing", "id": 593, "title": "Thing", "hidden": true, "sealed": false, "abstract": false, "version": "1.2", "fields": [
    {
        "name": "id",
        "title": "Κωδικός",
        "description":"Μοναδικός κωδικός",
        "type": "Counter",
        "nullable": false,
        "primary": true
    },
    {
        "name": "additionalType",
        "title": "Επιπλέον τύπος",
        "description": "An additional type for this item",
        "type": "Text"
    },
    {
        "name": "alternateName",
        "title": "Αναγνωριστικό όνομα",
        "description": "Ένα αναγνωριστικό όνομα για το στοιχείο.",
        "type": "Text"
    },
    {
        "name": "description",
        "title": "Περιγραφή",
        "description": "Μία σύντομη περιγραφή για το στοιχείο.",
        "type": "Text"
    },
    {
        "name": "image",
        "title": "Εικόνα",
        "description": "Η ηλεκτρονική διεύθυνση URL της εικόνας του στοιχείου.",
        "type": "URL"
    },
    {
        "name": "name",
        "title": "Όνομα",
        "description": "Το όνομα του στοιχείου.",
        "type": "Text"
    },
    {
        "name": "url",
        "title": "Διεύθυνση URL",
        "description": "Η ηλεκτρονική διεύθυνση με περισσότερες πληροφορίες για το στοιχείο. Π.χ. τη διεύθυνση URL της σελίδας Wikipedia ή του επίσημου ιστότοπου.",
        "type": "URL"
    },
    {
        "name": "dateCreated",
        "title": "Ημερομηνία δημιουργίας",
        "description": "Η ημερομηνία δημιουργίας του στοιχείου",
        "type": "DateTime",
        "value":"javascript:return this.now();",
        "readonly":true
    },
    {
        "name": "dateModified",
        "title": "Ημερομηνία τροποποίησης",
        "description": "Η ημερομηνία τροποποίησης του στοιχείου",
        "type": "DateTime",
        "value":"javascript:return new Date();",
        "calculation":"javascript:return this.now();",
        "readonly":true
    },
    {
        "name": "createdBy",
        "title": "Δημιουργήθηκε από",
        "description": "Ο χρήστης που δημιούργησε το στοιχείο.",
        "type": "User",
        "value":"javascript:return this.user();",
        "readonly":true
    },
    {
        "name": "modifiedBy",
        "title": "Τροποποιήθηκε από",
        "description": "Ο χρήστης που τροποποίησε το στοιχείο.",
        "type": "User",
        "calculation":"javascript:return this.user();",
        "readonly":true
    }
],
    "constraints":[

    ],
    "eventListeners":[

    ]
}